Example: Spatial modeling of trees in a rainforest
…
---

# Making predictions on original data

* sdmTMB has a `predict()` function just like other packages
* For help, see `?predict.sdmTMB`

.small[

```r
p <- predict(fit)
select(p, x, y, est:omega_s) %>%
  as_tibble()
#> # A tibble: 178 × 6
#>        x     y   est est_non_rf est_rf omega_s
#>    <dbl> <dbl> <dbl>      <dbl>  <dbl>   <dbl>
#>  1     0     0  3.25       2.68  0.572   0.572
#>  2     0    50  3.23       2.68  0.556   0.556
#>  3     0   100  3.22       2.68  0.540   0.540
#>  4     0   150  3.64       2.68  0.964   0.964
#>  5     0   200  4.07       2.68  1.39    1.39 
#>  6     0   250  3.62       2.68  0.948   0.948
#>  7     0   300  3.18       2.68  0.507   0.507
#>  8     0   350  3.24       2.68  0.564   0.564
#>  9     0   400  3.30       2.68  0.621   0.621
#> 10     0   450  3.38       2.68  0.708   0.708
#> # … with 168 more rows
```
…
