Introduction to spatial models with sdmTMB
…
---

# Making predictions

.small[

```r
*p <- predict(fit)
select(p, X, Y, est:omega_s)
#> # A tibble: 2,143 × 6
#>        X     Y     est est_non_rf  est_rf omega_s
#>    <dbl> <dbl>   <dbl>      <dbl>   <dbl>   <dbl>
#>  1  446. 5793.  0.0701      0.241 -0.171  -0.171 
#>  2  446. 5800. -0.184      -0.169 -0.0158 -0.0158
#>  3  449. 5802. -0.429      -0.480  0.0510  0.0510
#>  4  437. 5802.  1.21        0.383  0.826   0.826 
#>  5  421. 5771. -2.34       -1.98  -0.352  -0.352 
#>  6  418. 5772. -3.49       -3.64   0.147   0.147 
#>  7  408. 5771. -7.77       -9.01   1.25    1.25  
#>  8  408. 5767. -6.76       -7.96   1.21    1.21  
#>  9  414. 5761. -3.09       -3.27   0.184   0.184 
#> 10  400. 5749.  0.467      -2.60   3.07    3.07  
#> # ℹ 2,133 more rows
```
…
